%YAML 1.1
%TAG !u! tag:unity3d.com,2011:
--- !u!1001 &1487264772501902472
PrefabInstance:
  m_ObjectHideFlags: 0
  serializedVersion: 2
  m_Modification:
    m_TransformParent: {fileID: 0}
    m_Modifications:
    - target: {fileID: 1230374884253727507, guid: b607ed0d5c1354e7c9c12b4e430d3ff1,
        type: 3}
      propertyPath: m_AnchorMax.x
      value: 0
      objectReference: {fileID: 0}
    - target: {fileID: 1230374884253727507, guid: b607ed0d5c1354e7c9c12b4e430d3ff1,
        type: 3}
      propertyPath: m_AnchorMax.y
      value: 0
      objectReference: {fileID: 0}
    - target: {fileID: 1230374884253727507, guid: b607ed0d5c1354e7c9c12b4e430d3ff1,
        type: 3}
      propertyPath: m_AnchorMin.y
      value: 0
      objectReference: {fileID: 0}
    - target: {fileID: 1260973389842367089, guid: b607ed0d5c1354e7c9c12b4e430d3ff1,
        type: 3}
      propertyPath: m_Pivot.x
      value: 0.5
      objectReference: {fileID: 0}
    - target: {fileID: 1260973389842367089, guid: b607ed0d5c1354e7c9c12b4e430d3ff1,
        type: 3}
      propertyPath: m_Pivot.y
      value: 0.5
      objectReference: {fileID: 0}
    - target: {fileID: 1260973389842367089, guid: b607ed0d5c1354e7c9c12b4e430d3ff1,
        type: 3}
      propertyPath: m_RootOrder
      value: 0
      objectReference: {fileID: 0}
    - target: {fileID: 1260973389842367089, guid: b607ed0d5c1354e7c9c12b4e430d3ff1,
        type: 3}
      propertyPath: m_AnchorMax.x
      value: 1
      objectReference: {fileID: 0}
    - target: {fileID: 1260973389842367089, guid: b607ed0d5c1354e7c9c12b4e430d3ff1,
        type: 3}
      propertyPath: m_AnchorMax.y
      value: 1
      objectReference: {fileID: 0}
    - target: {fileID: 1260973389842367089, guid: b607ed0d5c1354e7c9c12b4e430d3ff1,
        type: 3}
      propertyPath: m_AnchorMin.x
      value: 0
      objectReference: {fileID: 0}
    - target: {fileID: 1260973389842367089, guid: b607ed0d5c1354e7c9c12b4e430d3ff1,
        type: 3}
      propertyPath: m_AnchorMin.y
      value: 0
      objectReference: {fileID: 0}
    - target: {fileID: 1260973389842367089, guid: b607ed0d5c1354e7c9c12b4e430d3ff1,
        type: 3}
      propertyPath: m_SizeDelta.x
      value: 0
      objectReference: {fileID: 0}
    - target: {fileID: 1260973389842367089, guid: b607ed0d5c1354e7c9c12b4e430d3ff1,
        type: 3}
      propertyPath: m_SizeDelta.y
      value: 0
      objectReference: {fileID: 0}
    - target: {fileID: 1260973389842367089, guid: b607ed0d5c1354e7c9c12b4e430d3ff1,
        type: 3}
      propertyPath: m_LocalPosition.x
      value: 0
      objectReference: {fileID: 0}
    - target: {fileID: 1260973389842367089, guid: b607ed0d5c1354e7c9c12b4e430d3ff1,
        type: 3}
      propertyPath: m_LocalPosition.y
      value: 0
      objectReference: {fileID: 0}
    - target: {fileID: 1260973389842367089, guid: b607ed0d5c1354e7c9c12b4e430d3ff1,
        type: 3}
      propertyPath: m_LocalPosition.z
      value: 0
      objectReference: {fileID: 0}
    - target: {fileID: 1260973389842367089, guid: b607ed0d5c1354e7c9c12b4e430d3ff1,
        type: 3}
      propertyPath: m_LocalRotation.w
      value: 1
      objectReference: {fileID: 0}
    - target: {fileID: 1260973389842367089, guid: b607ed0d5c1354e7c9c12b4e430d3ff1,
        type: 3}
      propertyPath: m_LocalRotation.x
      value: -0
      objectReference: {fileID: 0}
    - target: {fileID: 1260973389842367089, guid: b607ed0d5c1354e7c9c12b4e430d3ff1,
        type: 3}
      propertyPath: m_LocalRotation.y
      value: -0
      objectReference: {fileID: 0}
    - target: {fileID: 1260973389842367089, guid: b607ed0d5c1354e7c9c12b4e430d3ff1,
        type: 3}
      propertyPath: m_LocalRotation.z
      value: -0
      objectReference: {fileID: 0}
    - target: {fileID: 1260973389842367089, guid: b607ed0d5c1354e7c9c12b4e430d3ff1,
        type: 3}
      propertyPath: m_AnchoredPosition.x
      value: 0.000061035156
      objectReference: {fileID: 0}
    - target: {fileID: 1260973389842367089, guid: b607ed0d5c1354e7c9c12b4e430d3ff1,
        type: 3}
      propertyPath: m_AnchoredPosition.y
      value: 0
      objectReference: {fileID: 0}
    - target: {fileID: 1260973389842367089, guid: b607ed0d5c1354e7c9c12b4e430d3ff1,
        type: 3}
      propertyPath: m_LocalEulerAnglesHint.x
      value: 0
      objectReference: {fileID: 0}
    - target: {fileID: 1260973389842367089, guid: b607ed0d5c1354e7c9c12b4e430d3ff1,
        type: 3}
      propertyPath: m_LocalEulerAnglesHint.y
      value: 0
      objectReference: {fileID: 0}
    - target: {fileID: 1260973389842367089, guid: b607ed0d5c1354e7c9c12b4e430d3ff1,
        type: 3}
      propertyPath: m_LocalEulerAnglesHint.z
      value: 0
      objectReference: {fileID: 0}
    - target: {fileID: 1569360981080728963, guid: b607ed0d5c1354e7c9c12b4e430d3ff1,
        type: 3}
      propertyPath: m_Name
      value: BugReportScroll
      objectReference: {fileID: 0}
    - target: {fileID: 2067203522895791762, guid: b607ed0d5c1354e7c9c12b4e430d3ff1,
        type: 3}
      propertyPath: m_IsActive
      value: 1
      objectReference: {fileID: 0}
    - target: {fileID: 3172515974861369869, guid: b607ed0d5c1354e7c9c12b4e430d3ff1,
        type: 3}
      propertyPath: m_text
      value: You haven't reported a bug yet
      objectReference: {fileID: 0}
    - target: {fileID: 3874638239375706190, guid: b607ed0d5c1354e7c9c12b4e430d3ff1,
        type: 3}
      propertyPath: m_Type
      value: 0
      objectReference: {fileID: 0}
    - target: {fileID: 3874638239375706190, guid: b607ed0d5c1354e7c9c12b4e430d3ff1,
        type: 3}
      propertyPath: m_PreserveAspect
      value: 0
      objectReference: {fileID: 0}
    - target: {fileID: 3960783108634917232, guid: b607ed0d5c1354e7c9c12b4e430d3ff1,
        type: 3}
      propertyPath: m_Size
      value: 1
      objectReference: {fileID: 0}
    - target: {fileID: 3960783108634917232, guid: b607ed0d5c1354e7c9c12b4e430d3ff1,
        type: 3}
      propertyPath: m_Value
      value: 0
      objectReference: {fileID: 0}
    - target: {fileID: 4204601750918134598, guid: b607ed0d5c1354e7c9c12b4e430d3ff1,
        type: 3}
      propertyPath: m_AnchorMax.x
      value: 0
      objectReference: {fileID: 0}
    - target: {fileID: 4204601750918134598, guid: b607ed0d5c1354e7c9c12b4e430d3ff1,
        type: 3}
      propertyPath: m_AnchorMax.y
      value: 0
      objectReference: {fileID: 0}
    - target: {fileID: 4204601750918134598, guid: b607ed0d5c1354e7c9c12b4e430d3ff1,
        type: 3}
      propertyPath: m_SizeDelta.x
      value: 0
      objectReference: {fileID: 0}
    - target: {fileID: 6344581187494749911, guid: b607ed0d5c1354e7c9c12b4e430d3ff1,
        type: 3}
      propertyPath: m_SizeDelta.y
      value: 0
      objectReference: {fileID: 0}
    m_RemovedComponents: []
  m_SourcePrefab: {fileID: 100100000, guid: b607ed0d5c1354e7c9c12b4e430d3ff1, type: 3}
