%YAML 1.1
%TAG !u! tag:unity3d.com,2011:
--- !u!114 &5383632036876957494
MonoBehaviour:
  m_ObjectHideFlags: 0
  m_CorrespondingSourceObject: {fileID: 0}
  m_PrefabInstance: {fileID: 0}
  m_PrefabAsset: {fileID: 0}
  m_GameObject: {fileID: 408091587896588284}
  m_Enabled: 1
  m_EditorHideFlags: 0
  m_Script: {fileID: 11500000, guid: 8a8695521f0d02e499659fee002a26c2, type: 3}
  m_Name: 
  m_EditorClassIdentifier: 
  m_Padding:
    m_Left: 0
    m_Right: 0
    m_Top: 0
    m_Bottom: 0
  m_ChildAlignment: 0
  m_StartCorner: 0
  m_StartAxis: 0
  m_CellSize: {x: 120, y: 120}
  m_Spacing: {x: 20, y: 20}
  m_Constraint: 1
  m_ConstraintCount: 3
--- !u!1001 &6375585434071712894
PrefabInstance:
  m_ObjectHideFlags: 0
  serializedVersion: 2
  m_Modification:
    m_TransformParent: {fileID: 0}
    m_Modifications:
    - target: {fileID: 1230374884253727507, guid: b607ed0d5c1354e7c9c12b4e430d3ff1,
        type: 3}
      propertyPath: m_AnchorMax.x
      value: 0
      objectReference: {fileID: 0}
    - target: {fileID: 1230374884253727507, guid: b607ed0d5c1354e7c9c12b4e430d3ff1,
        type: 3}
      propertyPath: m_AnchorMax.y
      value: 0
      objectReference: {fileID: 0}
    - target: {fileID: 1230374884253727507, guid: b607ed0d5c1354e7c9c12b4e430d3ff1,
        type: 3}
      propertyPath: m_AnchorMin.y
      value: 0
      objectReference: {fileID: 0}
    - target: {fileID: 1260973389842367089, guid: b607ed0d5c1354e7c9c12b4e430d3ff1,
        type: 3}
      propertyPath: m_Pivot.x
      value: 0.5
      objectReference: {fileID: 0}
    - target: {fileID: 1260973389842367089, guid: b607ed0d5c1354e7c9c12b4e430d3ff1,
        type: 3}
      propertyPath: m_Pivot.y
      value: 0.5
      objectReference: {fileID: 0}
    - target: {fileID: 1260973389842367089, guid: b607ed0d5c1354e7c9c12b4e430d3ff1,
        type: 3}
      propertyPath: m_RootOrder
      value: 0
      objectReference: {fileID: 0}
    - target: {fileID: 1260973389842367089, guid: b607ed0d5c1354e7c9c12b4e430d3ff1,
        type: 3}
      propertyPath: m_AnchorMax.x
      value: 1
      objectReference: {fileID: 0}
    - target: {fileID: 1260973389842367089, guid: b607ed0d5c1354e7c9c12b4e430d3ff1,
        type: 3}
      propertyPath: m_AnchorMax.y
      value: 1
      objectReference: {fileID: 0}
    - target: {fileID: 1260973389842367089, guid: b607ed0d5c1354e7c9c12b4e430d3ff1,
        type: 3}
      propertyPath: m_AnchorMin.x
      value: 0
      objectReference: {fileID: 0}
    - target: {fileID: 1260973389842367089, guid: b607ed0d5c1354e7c9c12b4e430d3ff1,
        type: 3}
      propertyPath: m_AnchorMin.y
      value: 0
      objectReference: {fileID: 0}
    - target: {fileID: 1260973389842367089, guid: b607ed0d5c1354e7c9c12b4e430d3ff1,
        type: 3}
      propertyPath: m_SizeDelta.x
      value: 0
      objectReference: {fileID: 0}
    - target: {fileID: 1260973389842367089, guid: b607ed0d5c1354e7c9c12b4e430d3ff1,
        type: 3}
      propertyPath: m_SizeDelta.y
      value: 0
      objectReference: {fileID: 0}
    - target: {fileID: 1260973389842367089, guid: b607ed0d5c1354e7c9c12b4e430d3ff1,
        type: 3}
      propertyPath: m_LocalPosition.x
      value: 0
      objectReference: {fileID: 0}
    - target: {fileID: 1260973389842367089, guid: b607ed0d5c1354e7c9c12b4e430d3ff1,
        type: 3}
      propertyPath: m_LocalPosition.y
      value: 0
      objectReference: {fileID: 0}
    - target: {fileID: 1260973389842367089, guid: b607ed0d5c1354e7c9c12b4e430d3ff1,
        type: 3}
      propertyPath: m_LocalPosition.z
      value: 0
      objectReference: {fileID: 0}
    - target: {fileID: 1260973389842367089, guid: b607ed0d5c1354e7c9c12b4e430d3ff1,
        type: 3}
      propertyPath: m_LocalRotation.w
      value: 1
      objectReference: {fileID: 0}
    - target: {fileID: 1260973389842367089, guid: b607ed0d5c1354e7c9c12b4e430d3ff1,
        type: 3}
      propertyPath: m_LocalRotation.x
      value: -0
      objectReference: {fileID: 0}
    - target: {fileID: 1260973389842367089, guid: b607ed0d5c1354e7c9c12b4e430d3ff1,
        type: 3}
      propertyPath: m_LocalRotation.y
      value: -0
      objectReference: {fileID: 0}
    - target: {fileID: 1260973389842367089, guid: b607ed0d5c1354e7c9c12b4e430d3ff1,
        type: 3}
      propertyPath: m_LocalRotation.z
      value: -0
      objectReference: {fileID: 0}
    - target: {fileID: 1260973389842367089, guid: b607ed0d5c1354e7c9c12b4e430d3ff1,
        type: 3}
      propertyPath: m_AnchoredPosition.x
      value: 0.000061035156
      objectReference: {fileID: 0}
    - target: {fileID: 1260973389842367089, guid: b607ed0d5c1354e7c9c12b4e430d3ff1,
        type: 3}
      propertyPath: m_AnchoredPosition.y
      value: 0
      objectReference: {fileID: 0}
    - target: {fileID: 1260973389842367089, guid: b607ed0d5c1354e7c9c12b4e430d3ff1,
        type: 3}
      propertyPath: m_LocalEulerAnglesHint.x
      value: 0
      objectReference: {fileID: 0}
    - target: {fileID: 1260973389842367089, guid: b607ed0d5c1354e7c9c12b4e430d3ff1,
        type: 3}
      propertyPath: m_LocalEulerAnglesHint.y
      value: 0
      objectReference: {fileID: 0}
    - target: {fileID: 1260973389842367089, guid: b607ed0d5c1354e7c9c12b4e430d3ff1,
        type: 3}
      propertyPath: m_LocalEulerAnglesHint.z
      value: 0
      objectReference: {fileID: 0}
    - target: {fileID: 1569360981080728963, guid: b607ed0d5c1354e7c9c12b4e430d3ff1,
        type: 3}
      propertyPath: m_Name
      value: QUDOProfileImagePicker
      objectReference: {fileID: 0}
    - target: {fileID: 2067203522895791762, guid: b607ed0d5c1354e7c9c12b4e430d3ff1,
        type: 3}
      propertyPath: m_IsActive
      value: 0
      objectReference: {fileID: 0}
    - target: {fileID: 3960783108634917232, guid: b607ed0d5c1354e7c9c12b4e430d3ff1,
        type: 3}
      propertyPath: m_Value
      value: 0
      objectReference: {fileID: 0}
    - target: {fileID: 6344581187494749911, guid: b607ed0d5c1354e7c9c12b4e430d3ff1,
        type: 3}
      propertyPath: m_SizeDelta.y
      value: 0
      objectReference: {fileID: 0}
    m_RemovedComponents:
    - {fileID: 5038604417729022208, guid: b607ed0d5c1354e7c9c12b4e430d3ff1, type: 3}
  m_SourcePrefab: {fileID: 100100000, guid: b607ed0d5c1354e7c9c12b4e430d3ff1, type: 3}
--- !u!1 &408091587896588284 stripped
GameObject:
  m_CorrespondingSourceObject: {fileID: 6760875074940138370, guid: b607ed0d5c1354e7c9c12b4e430d3ff1,
    type: 3}
  m_PrefabInstance: {fileID: 6375585434071712894}
  m_PrefabAsset: {fileID: 0}
