%YAML 1.1
%TAG !u! tag:unity3d.com,2011:
--- !u!1001 &5007932189854390904
PrefabInstance:
  m_ObjectHideFlags: 0
  serializedVersion: 2
  m_Modification:
    serializedVersion: 3
    m_TransformParent: {fileID: 0}
    m_Modifications:
    - target: {fileID: 49628376079612588, guid: cc363dbedf3e0094ea576b27ae1851e6, type: 3}
      propertyPath: m_Pivot.x
      value: 0.5
      objectReference: {fileID: 0}
    - target: {fileID: 49628376079612588, guid: cc363dbedf3e0094ea576b27ae1851e6, type: 3}
      propertyPath: m_Pivot.y
      value: 0.5
      objectReference: {fileID: 0}
    - target: {fileID: 49628376079612588, guid: cc363dbedf3e0094ea576b27ae1851e6, type: 3}
      propertyPath: m_AnchorMax.x
      value: 0
      objectReference: {fileID: 0}
    - target: {fileID: 49628376079612588, guid: cc363dbedf3e0094ea576b27ae1851e6, type: 3}
      propertyPath: m_AnchorMax.y
      value: 0
      objectReference: {fileID: 0}
    - target: {fileID: 49628376079612588, guid: cc363dbedf3e0094ea576b27ae1851e6, type: 3}
      propertyPath: m_AnchorMin.x
      value: 0
      objectReference: {fileID: 0}
    - target: {fileID: 49628376079612588, guid: cc363dbedf3e0094ea576b27ae1851e6, type: 3}
      propertyPath: m_AnchorMin.y
      value: 0
      objectReference: {fileID: 0}
    - target: {fileID: 49628376079612588, guid: cc363dbedf3e0094ea576b27ae1851e6, type: 3}
      propertyPath: m_SizeDelta.x
      value: 522
      objectReference: {fileID: 0}
    - target: {fileID: 49628376079612588, guid: cc363dbedf3e0094ea576b27ae1851e6, type: 3}
      propertyPath: m_SizeDelta.y
      value: 200
      objectReference: {fileID: 0}
    - target: {fileID: 49628376079612588, guid: cc363dbedf3e0094ea576b27ae1851e6, type: 3}
      propertyPath: m_LocalPosition.x
      value: 0
      objectReference: {fileID: 0}
    - target: {fileID: 49628376079612588, guid: cc363dbedf3e0094ea576b27ae1851e6, type: 3}
      propertyPath: m_LocalPosition.y
      value: 0
      objectReference: {fileID: 0}
    - target: {fileID: 49628376079612588, guid: cc363dbedf3e0094ea576b27ae1851e6, type: 3}
      propertyPath: m_LocalPosition.z
      value: 0
      objectReference: {fileID: 0}
    - target: {fileID: 49628376079612588, guid: cc363dbedf3e0094ea576b27ae1851e6, type: 3}
      propertyPath: m_LocalRotation.w
      value: 1
      objectReference: {fileID: 0}
    - target: {fileID: 49628376079612588, guid: cc363dbedf3e0094ea576b27ae1851e6, type: 3}
      propertyPath: m_LocalRotation.x
      value: 0
      objectReference: {fileID: 0}
    - target: {fileID: 49628376079612588, guid: cc363dbedf3e0094ea576b27ae1851e6, type: 3}
      propertyPath: m_LocalRotation.y
      value: 0
      objectReference: {fileID: 0}
    - target: {fileID: 49628376079612588, guid: cc363dbedf3e0094ea576b27ae1851e6, type: 3}
      propertyPath: m_LocalRotation.z
      value: 0
      objectReference: {fileID: 0}
    - target: {fileID: 49628376079612588, guid: cc363dbedf3e0094ea576b27ae1851e6, type: 3}
      propertyPath: m_AnchoredPosition.x
      value: 0
      objectReference: {fileID: 0}
    - target: {fileID: 49628376079612588, guid: cc363dbedf3e0094ea576b27ae1851e6, type: 3}
      propertyPath: m_AnchoredPosition.y
      value: 0
      objectReference: {fileID: 0}
    - target: {fileID: 49628376079612588, guid: cc363dbedf3e0094ea576b27ae1851e6, type: 3}
      propertyPath: m_LocalEulerAnglesHint.x
      value: 0
      objectReference: {fileID: 0}
    - target: {fileID: 49628376079612588, guid: cc363dbedf3e0094ea576b27ae1851e6, type: 3}
      propertyPath: m_LocalEulerAnglesHint.y
      value: 0
      objectReference: {fileID: 0}
    - target: {fileID: 49628376079612588, guid: cc363dbedf3e0094ea576b27ae1851e6, type: 3}
      propertyPath: m_LocalEulerAnglesHint.z
      value: 0
      objectReference: {fileID: 0}
    - target: {fileID: 2283409587955861640, guid: cc363dbedf3e0094ea576b27ae1851e6, type: 3}
      propertyPath: m_CellSize.x
      value: 150
      objectReference: {fileID: 0}
    - target: {fileID: 2283409587955861640, guid: cc363dbedf3e0094ea576b27ae1851e6, type: 3}
      propertyPath: m_CellSize.y
      value: 60
      objectReference: {fileID: 0}
    - target: {fileID: 3512863799014323737, guid: cc363dbedf3e0094ea576b27ae1851e6, type: 3}
      propertyPath: m_Name
      value: AttackDataGrid
      objectReference: {fileID: 0}
    - target: {fileID: 5028728701859036575, guid: cc363dbedf3e0094ea576b27ae1851e6, type: 3}
      propertyPath: m_AnchorMax.y
      value: 0
      objectReference: {fileID: 0}
    - target: {fileID: 5028728701859036575, guid: cc363dbedf3e0094ea576b27ae1851e6, type: 3}
      propertyPath: m_AnchorMin.y
      value: 0
      objectReference: {fileID: 0}
    - target: {fileID: 5028728701859036575, guid: cc363dbedf3e0094ea576b27ae1851e6, type: 3}
      propertyPath: m_SizeDelta.x
      value: 522
      objectReference: {fileID: 0}
    - target: {fileID: 5028728701859036575, guid: cc363dbedf3e0094ea576b27ae1851e6, type: 3}
      propertyPath: m_SizeDelta.y
      value: 0
      objectReference: {fileID: 0}
    - target: {fileID: 5028728701859036575, guid: cc363dbedf3e0094ea576b27ae1851e6, type: 3}
      propertyPath: m_AnchoredPosition.x
      value: 0
      objectReference: {fileID: 0}
    - target: {fileID: 5028728701859036575, guid: cc363dbedf3e0094ea576b27ae1851e6, type: 3}
      propertyPath: m_AnchoredPosition.y
      value: 0
      objectReference: {fileID: 0}
    - target: {fileID: 7212624158493333808, guid: cc363dbedf3e0094ea576b27ae1851e6, type: 3}
      propertyPath: m_AnchorMax.y
      value: 0
      objectReference: {fileID: 0}
    - target: {fileID: 7212624158493333808, guid: cc363dbedf3e0094ea576b27ae1851e6, type: 3}
      propertyPath: m_AnchorMin.y
      value: 0
      objectReference: {fileID: 0}
    - target: {fileID: 7212624158493333808, guid: cc363dbedf3e0094ea576b27ae1851e6, type: 3}
      propertyPath: m_SizeDelta.y
      value: 0
      objectReference: {fileID: 0}
    - target: {fileID: 7212624158493333808, guid: cc363dbedf3e0094ea576b27ae1851e6, type: 3}
      propertyPath: m_AnchoredPosition.x
      value: 0
      objectReference: {fileID: 0}
    - target: {fileID: 7212624158493333808, guid: cc363dbedf3e0094ea576b27ae1851e6, type: 3}
      propertyPath: m_AnchoredPosition.y
      value: 0
      objectReference: {fileID: 0}
    m_RemovedComponents: []
    m_RemovedGameObjects: []
    m_AddedGameObjects: []
    m_AddedComponents:
    - targetCorrespondingSourceObject: {fileID: 3512863799014323737, guid: cc363dbedf3e0094ea576b27ae1851e6, type: 3}
      insertIndex: -1
      addedObject: {fileID: 3706149769210087462}
  m_SourcePrefab: {fileID: 100100000, guid: cc363dbedf3e0094ea576b27ae1851e6, type: 3}
--- !u!224 &51261256251582439 stripped
RectTransform:
  m_CorrespondingSourceObject: {fileID: 5028728701859036575, guid: cc363dbedf3e0094ea576b27ae1851e6, type: 3}
  m_PrefabInstance: {fileID: 5007932189854390904}
  m_PrefabAsset: {fileID: 0}
--- !u!114 &7299179434939992425 stripped
MonoBehaviour:
  m_CorrespondingSourceObject: {fileID: 2320579552451793681, guid: cc363dbedf3e0094ea576b27ae1851e6, type: 3}
  m_PrefabInstance: {fileID: 5007932189854390904}
  m_PrefabAsset: {fileID: 0}
  m_GameObject: {fileID: 0}
  m_Enabled: 1
  m_EditorHideFlags: 0
  m_Script: {fileID: 11500000, guid: f4688fdb7df04437aeb418b961361dc5, type: 3}
  m_Name: 
  m_EditorClassIdentifier: 
--- !u!1 &8484655014802893921 stripped
GameObject:
  m_CorrespondingSourceObject: {fileID: 3512863799014323737, guid: cc363dbedf3e0094ea576b27ae1851e6, type: 3}
  m_PrefabInstance: {fileID: 5007932189854390904}
  m_PrefabAsset: {fileID: 0}
--- !u!114 &3706149769210087462
MonoBehaviour:
  m_ObjectHideFlags: 0
  m_CorrespondingSourceObject: {fileID: 0}
  m_PrefabInstance: {fileID: 0}
  m_PrefabAsset: {fileID: 0}
  m_GameObject: {fileID: 8484655014802893921}
  m_Enabled: 1
  m_EditorHideFlags: 0
  m_Script: {fileID: 1916471370, guid: 50ae9b8467c4df7409522916b932ce00, type: 3}
  m_Name: 
  m_EditorClassIdentifier: 
  title: {fileID: 7299179434939992425}
  _gridLayoutTransform: {fileID: 51261256251582439}
  dataElementPrefab: {fileID: 3499716330039173925, guid: b4876421c019c994c8945597b915b301, type: 3}
  PaddingAdjustment: 25
  overallColor: {r: 0.8773585, g: 0.086908154, b: 0.086908154, a: 1}
