%YAML 1.1
%TAG !u! tag:unity3d.com,2011:
--- !u!1001 &1709525270193093154
PrefabInstance:
  m_ObjectHideFlags: 0
  serializedVersion: 2
  m_Modification:
    m_TransformParent: {fileID: 0}
    m_Modifications:
    - target: {fileID: 3103449304147846555, guid: 8b857e15eeed18f4bb650d4a33ca3852,
        type: 3}
      propertyPath: m_fontColor.a
      value: 1
      objectReference: {fileID: 0}
    - target: {fileID: 3103449304147846555, guid: 8b857e15eeed18f4bb650d4a33ca3852,
        type: 3}
      propertyPath: m_fontColor.b
      value: 0.14509805
      objectReference: {fileID: 0}
    - target: {fileID: 3103449304147846555, guid: 8b857e15eeed18f4bb650d4a33ca3852,
        type: 3}
      propertyPath: m_fontColor.g
      value: 0.15294118
      objectReference: {fileID: 0}
    - target: {fileID: 3103449304147846555, guid: 8b857e15eeed18f4bb650d4a33ca3852,
        type: 3}
      propertyPath: m_fontColor.r
      value: 0.15686275
      objectReference: {fileID: 0}
    - target: {fileID: 3103449304147846555, guid: 8b857e15eeed18f4bb650d4a33ca3852,
        type: 3}
      propertyPath: m_fontColor32.rgba
      value: 4280624936
      objectReference: {fileID: 0}
    - target: {fileID: 3498124683236295926, guid: 8b857e15eeed18f4bb650d4a33ca3852,
        type: 3}
      propertyPath: m_IsActive
      value: 0
      objectReference: {fileID: 0}
    - target: {fileID: 3498124683382448144, guid: 8b857e15eeed18f4bb650d4a33ca3852,
        type: 3}
      propertyPath: m_Sprite
      value: 
      objectReference: {fileID: 21300000, guid: 4c885a2f83db51d4f98ce5e58e60dc00,
        type: 3}
    - target: {fileID: 3498124683382448144, guid: 8b857e15eeed18f4bb650d4a33ca3852,
        type: 3}
      propertyPath: m_Color.b
      value: 1
      objectReference: {fileID: 0}
    - target: {fileID: 3498124683382448144, guid: 8b857e15eeed18f4bb650d4a33ca3852,
        type: 3}
      propertyPath: m_Color.g
      value: 1
      objectReference: {fileID: 0}
    - target: {fileID: 3498124683382448144, guid: 8b857e15eeed18f4bb650d4a33ca3852,
        type: 3}
      propertyPath: m_Color.r
      value: 1
      objectReference: {fileID: 0}
    - target: {fileID: 3498124683465250600, guid: 8b857e15eeed18f4bb650d4a33ca3852,
        type: 3}
      propertyPath: m_Pivot.x
      value: 0.5
      objectReference: {fileID: 0}
    - target: {fileID: 3498124683465250600, guid: 8b857e15eeed18f4bb650d4a33ca3852,
        type: 3}
      propertyPath: m_Pivot.y
      value: 0.5
      objectReference: {fileID: 0}
    - target: {fileID: 3498124683465250600, guid: 8b857e15eeed18f4bb650d4a33ca3852,
        type: 3}
      propertyPath: m_RootOrder
      value: 0
      objectReference: {fileID: 0}
    - target: {fileID: 3498124683465250600, guid: 8b857e15eeed18f4bb650d4a33ca3852,
        type: 3}
      propertyPath: m_AnchorMax.x
      value: 0.5
      objectReference: {fileID: 0}
    - target: {fileID: 3498124683465250600, guid: 8b857e15eeed18f4bb650d4a33ca3852,
        type: 3}
      propertyPath: m_AnchorMax.y
      value: 0.5
      objectReference: {fileID: 0}
    - target: {fileID: 3498124683465250600, guid: 8b857e15eeed18f4bb650d4a33ca3852,
        type: 3}
      propertyPath: m_AnchorMin.x
      value: 0.5
      objectReference: {fileID: 0}
    - target: {fileID: 3498124683465250600, guid: 8b857e15eeed18f4bb650d4a33ca3852,
        type: 3}
      propertyPath: m_AnchorMin.y
      value: 0.5
      objectReference: {fileID: 0}
    - target: {fileID: 3498124683465250600, guid: 8b857e15eeed18f4bb650d4a33ca3852,
        type: 3}
      propertyPath: m_SizeDelta.x
      value: 200
      objectReference: {fileID: 0}
    - target: {fileID: 3498124683465250600, guid: 8b857e15eeed18f4bb650d4a33ca3852,
        type: 3}
      propertyPath: m_SizeDelta.y
      value: 200
      objectReference: {fileID: 0}
    - target: {fileID: 3498124683465250600, guid: 8b857e15eeed18f4bb650d4a33ca3852,
        type: 3}
      propertyPath: m_LocalPosition.x
      value: 0
      objectReference: {fileID: 0}
    - target: {fileID: 3498124683465250600, guid: 8b857e15eeed18f4bb650d4a33ca3852,
        type: 3}
      propertyPath: m_LocalPosition.y
      value: 0
      objectReference: {fileID: 0}
    - target: {fileID: 3498124683465250600, guid: 8b857e15eeed18f4bb650d4a33ca3852,
        type: 3}
      propertyPath: m_LocalPosition.z
      value: 0
      objectReference: {fileID: 0}
    - target: {fileID: 3498124683465250600, guid: 8b857e15eeed18f4bb650d4a33ca3852,
        type: 3}
      propertyPath: m_LocalRotation.w
      value: 1
      objectReference: {fileID: 0}
    - target: {fileID: 3498124683465250600, guid: 8b857e15eeed18f4bb650d4a33ca3852,
        type: 3}
      propertyPath: m_LocalRotation.x
      value: 0
      objectReference: {fileID: 0}
    - target: {fileID: 3498124683465250600, guid: 8b857e15eeed18f4bb650d4a33ca3852,
        type: 3}
      propertyPath: m_LocalRotation.y
      value: 0
      objectReference: {fileID: 0}
    - target: {fileID: 3498124683465250600, guid: 8b857e15eeed18f4bb650d4a33ca3852,
        type: 3}
      propertyPath: m_LocalRotation.z
      value: 0
      objectReference: {fileID: 0}
    - target: {fileID: 3498124683465250600, guid: 8b857e15eeed18f4bb650d4a33ca3852,
        type: 3}
      propertyPath: m_AnchoredPosition.x
      value: 0
      objectReference: {fileID: 0}
    - target: {fileID: 3498124683465250600, guid: 8b857e15eeed18f4bb650d4a33ca3852,
        type: 3}
      propertyPath: m_AnchoredPosition.y
      value: 116
      objectReference: {fileID: 0}
    - target: {fileID: 3498124683465250600, guid: 8b857e15eeed18f4bb650d4a33ca3852,
        type: 3}
      propertyPath: m_LocalEulerAnglesHint.x
      value: 0
      objectReference: {fileID: 0}
    - target: {fileID: 3498124683465250600, guid: 8b857e15eeed18f4bb650d4a33ca3852,
        type: 3}
      propertyPath: m_LocalEulerAnglesHint.y
      value: 0
      objectReference: {fileID: 0}
    - target: {fileID: 3498124683465250600, guid: 8b857e15eeed18f4bb650d4a33ca3852,
        type: 3}
      propertyPath: m_LocalEulerAnglesHint.z
      value: 0
      objectReference: {fileID: 0}
    - target: {fileID: 3498124683465250615, guid: 8b857e15eeed18f4bb650d4a33ca3852,
        type: 3}
      propertyPath: m_Name
      value: QUDOMonochromaticJustInnerCircleBlack
      objectReference: {fileID: 0}
    - target: {fileID: 3498124684199629293, guid: 8b857e15eeed18f4bb650d4a33ca3852,
        type: 3}
      propertyPath: m_Sprite
      value: 
      objectReference: {fileID: 21300000, guid: 0e0ad3a721bec4c4b9bf99adbdb6a5f8,
        type: 3}
    - target: {fileID: 3498124684265984746, guid: 8b857e15eeed18f4bb650d4a33ca3852,
        type: 3}
      propertyPath: m_IsActive
      value: 1
      objectReference: {fileID: 0}
    - target: {fileID: 3498124684394414340, guid: 8b857e15eeed18f4bb650d4a33ca3852,
        type: 3}
      propertyPath: m_IsActive
      value: 0
      objectReference: {fileID: 0}
    - target: {fileID: 3498124684423183963, guid: 8b857e15eeed18f4bb650d4a33ca3852,
        type: 3}
      propertyPath: m_Sprite
      value: 
      objectReference: {fileID: 21300000, guid: 55c6e3c69a7d92242890f605d2c589f1,
        type: 3}
    - target: {fileID: 3498124684423183963, guid: 8b857e15eeed18f4bb650d4a33ca3852,
        type: 3}
      propertyPath: m_Color.b
      value: 0.14509805
      objectReference: {fileID: 0}
    - target: {fileID: 3498124684423183963, guid: 8b857e15eeed18f4bb650d4a33ca3852,
        type: 3}
      propertyPath: m_Color.g
      value: 0.15294118
      objectReference: {fileID: 0}
    - target: {fileID: 3498124684423183963, guid: 8b857e15eeed18f4bb650d4a33ca3852,
        type: 3}
      propertyPath: m_Color.r
      value: 0.15686275
      objectReference: {fileID: 0}
    - target: {fileID: 5187096105282486319, guid: 8b857e15eeed18f4bb650d4a33ca3852,
        type: 3}
      propertyPath: m_Color.a
      value: 0.9411765
      objectReference: {fileID: 0}
    - target: {fileID: 5187096105282486319, guid: 8b857e15eeed18f4bb650d4a33ca3852,
        type: 3}
      propertyPath: m_Color.b
      value: 0.007843138
      objectReference: {fileID: 0}
    - target: {fileID: 5187096105282486319, guid: 8b857e15eeed18f4bb650d4a33ca3852,
        type: 3}
      propertyPath: m_Color.g
      value: 0.8509804
      objectReference: {fileID: 0}
    - target: {fileID: 5187096105282486319, guid: 8b857e15eeed18f4bb650d4a33ca3852,
        type: 3}
      propertyPath: m_Color.r
      value: 0.9882353
      objectReference: {fileID: 0}
    m_RemovedComponents: []
  m_SourcePrefab: {fileID: 100100000, guid: 8b857e15eeed18f4bb650d4a33ca3852, type: 3}
